%YAML 1.1
%TAG !u! tag:unity3d.com,2011:
--- !u!74 &7400000
AnimationClip:
  m_ObjectHideFlags: 0
  m_PrefabParentObject: {fileID: 0}
  m_PrefabInternal: {fileID: 0}
  m_Name: ExplosionGroundAnim
  serializedVersion: 6
  m_Legacy: 0
  m_Compressed: 0
  m_UseHighQualityCurve: 1
  m_RotationCurves: []
  m_CompressedRotationCurves: []
  m_EulerCurves: []
  m_PositionCurves: []
  m_ScaleCurves: []
  m_FloatCurves: []
  m_PPtrCurves:
  - curve:
    - time: 0
      value: {fileID: 21300000, guid: d5c23168d5ef7904598184adf11121cd, type: 3}
    - time: 0.05
      value: {fileID: 21300000, guid: d5c23168d5ef7904598184adf11121cd, type: 3}
    - time: 0.1
      value: {fileID: 21300000, guid: e155626e83349b74c95c064d080351bc, type: 3}
    - time: 0.15
      value: {fileID: 21300000, guid: e155626e83349b74c95c064d080351bc, type: 3}
    - time: 0.18333334
      value: {fileID: 21300000, guid: 6f2f134670db0c943a9fe468189de718, type: 3}
    - time: 0.23333333
      value: {fileID: 21300000, guid: 6f2f134670db0c943a9fe468189de718, type: 3}
    - time: 0.28333333
      value: {fileID: 21300000, guid: 0f136e9eff88bb745a6d432083e6c668, type: 3}
    - time: 0.33333334
      value: {fileID: 21300000, guid: 0f136e9eff88bb745a6d432083e6c668, type: 3}
    - time: 0.38333333
      value: {fileID: 21300000, guid: 9cbed00986e7dfd4c97858503e208fde, type: 3}
    - time: 0.43333334
      value: {fileID: 21300000, guid: 9cbed00986e7dfd4c97858503e208fde, type: 3}
    - time: 0.48333332
      value: {fileID: 21300000, guid: ed6a5866684e5074788ec13c600a52f4, type: 3}
    - time: 0.51666665
      value: {fileID: 21300000, guid: ed6a5866684e5074788ec13c600a52f4, type: 3}
    - time: 0.56666666
      value: {fileID: 21300000, guid: d4eed4654e3b62c4882530beec98a826, type: 3}
    - time: 0.6166667
      value: {fileID: 21300000, guid: d4eed4654e3b62c4882530beec98a826, type: 3}
    - time: 0.6666667
      value: {fileID: 21300000, guid: 2419bc7dee76f1048a70b844594f1190, type: 3}
    - time: 0.71666664
      value: {fileID: 21300000, guid: 2419bc7dee76f1048a70b844594f1190, type: 3}
    - time: 0.76666665
      value: {fileID: 21300000, guid: cc9042df08c2eb94f96f530f67a556b9, type: 3}
    - time: 0.81666666
      value: {fileID: 21300000, guid: cc9042df08c2eb94f96f530f67a556b9, type: 3}
    - time: 0.85
      value: {fileID: 21300000, guid: e4757217292fdaa4f93a48a57845473a, type: 3}
    - time: 0.9
      value: {fileID: 21300000, guid: e4757217292fdaa4f93a48a57845473a, type: 3}
    - time: 0.95
      value: {fileID: 21300000, guid: f7ad484d087b3cd4f8fc054962402f1e, type: 3}
    - time: 1
      value: {fileID: 21300000, guid: f7ad484d087b3cd4f8fc054962402f1e, type: 3}
    attribute: m_Sprite
    path: 
    classID: 212
    script: {fileID: 0}
  m_SampleRate: 60
  m_WrapMode: 0
  m_Bounds:
    m_Center: {x: 0, y: 0, z: 0}
    m_Extent: {x: 0, y: 0, z: 0}
  m_ClipBindingConstant:
    genericBindings:
    - serializedVersion: 2
      path: 0
      attribute: 0
      script: {fileID: 0}
      typeID: 212
      customType: 23
      isPPtrCurve: 1
    pptrCurveMapping:
    - {fileID: 21300000, guid: d5c23168d5ef7904598184adf11121cd, type: 3}
    - {fileID: 21300000, guid: d5c23168d5ef7904598184adf11121cd, type: 3}
    - {fileID: 21300000, guid: e155626e83349b74c95c064d080351bc, type: 3}
    - {fileID: 21300000, guid: e155626e83349b74c95c064d080351bc, type: 3}
    - {fileID: 21300000, guid: 6f2f134670db0c943a9fe468189de718, type: 3}
    - {fileID: 21300000, guid: 6f2f134670db0c943a9fe468189de718, type: 3}
    - {fileID: 21300000, guid: 0f136e9eff88bb745a6d432083e6c668, type: 3}
    - {fileID: 21300000, guid: 0f136e9eff88bb745a6d432083e6c668, type: 3}
    - {fileID: 21300000, guid: 9cbed00986e7dfd4c97858503e208fde, type: 3}
    - {fileID: 21300000, guid: 9cbed00986e7dfd4c97858503e208fde, type: 3}
    - {fileID: 21300000, guid: ed6a5866684e5074788ec13c600a52f4, type: 3}
    - {fileID: 21300000, guid: ed6a5866684e5074788ec13c600a52f4, type: 3}
    - {fileID: 21300000, guid: d4eed4654e3b62c4882530beec98a826, type: 3}
    - {fileID: 21300000, guid: d4eed4654e3b62c4882530beec98a826, type: 3}
    - {fileID: 21300000, guid: 2419bc7dee76f1048a70b844594f1190, type: 3}
    - {fileID: 21300000, guid: 2419bc7dee76f1048a70b844594f1190, type: 3}
    - {fileID: 21300000, guid: cc9042df08c2eb94f96f530f67a556b9, type: 3}
    - {fileID: 21300000, guid: cc9042df08c2eb94f96f530f67a556b9, type: 3}
    - {fileID: 21300000, guid: e4757217292fdaa4f93a48a57845473a, type: 3}
    - {fileID: 21300000, guid: e4757217292fdaa4f93a48a57845473a, type: 3}
    - {fileID: 21300000, guid: f7ad484d087b3cd4f8fc054962402f1e, type: 3}
    - {fileID: 21300000, guid: f7ad484d087b3cd4f8fc054962402f1e, type: 3}
  m_AnimationClipSettings:
    serializedVersion: 2
    m_AdditiveReferencePoseClip: {fileID: 0}
    m_AdditiveReferencePoseTime: 0
    m_StartTime: 0
    m_StopTime: 1.0166667
    m_OrientationOffsetY: 0
    m_Level: 0
    m_CycleOffset: 0
    m_HasAdditiveReferencePose: 0
    m_LoopTime: 0
    m_LoopBlend: 0
    m_LoopBlendOrientation: 0
    m_LoopBlendPositionY: 0
    m_LoopBlendPositionXZ: 0
    m_KeepOriginalOrientation: 0
    m_KeepOriginalPositionY: 1
    m_KeepOriginalPositionXZ: 0
    m_HeightFromFeet: 0
    m_Mirror: 0
  m_EditorCurves: []
  m_EulerEditorCurves: []
  m_HasGenericRootTransform: 0
  m_HasMotionFloatCurves: 0
  m_GenerateMotionCurves: 0
  m_Events: []
