%YAML 1.1
%TAG !u! tag:unity3d.com,2011:
--- !u!29 &1
OcclusionCullingSettings:
  m_ObjectHideFlags: 0
  serializedVersion: 2
  m_OcclusionBakeSettings:
    smallestOccluder: 5
    smallestHole: 0.25
    backfaceThreshold: 100
  m_SceneGUID: 00000000000000000000000000000000
  m_OcclusionCullingData: {fileID: 0}
--- !u!104 &2
RenderSettings:
  m_ObjectHideFlags: 0
  serializedVersion: 9
  m_Fog: 0
  m_FogColor: {r: 0.5, g: 0.5, b: 0.5, a: 1}
  m_FogMode: 3
  m_FogDensity: 0.01
  m_LinearFogStart: 0
  m_LinearFogEnd: 300
  m_AmbientSkyColor: {r: 0.212, g: 0.227, b: 0.259, a: 1}
  m_AmbientEquatorColor: {r: 0.114, g: 0.125, b: 0.133, a: 1}
  m_AmbientGroundColor: {r: 0.047, g: 0.043, b: 0.035, a: 1}
  m_AmbientIntensity: 1
  m_AmbientMode: 0
  m_SubtractiveShadowColor: {r: 0.42, g: 0.478, b: 0.627, a: 1}
  m_SkyboxMaterial: {fileID: 10304, guid: 0000000000000000f000000000000000, type: 0}
  m_HaloStrength: 0.5
  m_FlareStrength: 1
  m_FlareFadeSpeed: 3
  m_HaloTexture: {fileID: 0}
  m_SpotCookie: {fileID: 10001, guid: 0000000000000000e000000000000000, type: 0}
  m_DefaultReflectionMode: 0
  m_DefaultReflectionResolution: 128
  m_ReflectionBounces: 1
  m_ReflectionIntensity: 1
  m_CustomReflection: {fileID: 0}
  m_Sun: {fileID: 0}
  m_IndirectSpecularColor: {r: 0.37311992, g: 0.38074034, b: 0.35872713, a: 1}
  m_UseRadianceAmbientProbe: 0
--- !u!157 &3
LightmapSettings:
  m_ObjectHideFlags: 0
  serializedVersion: 11
  m_GIWorkflowMode: 0
  m_GISettings:
    serializedVersion: 2
    m_BounceScale: 1
    m_IndirectOutputScale: 1
    m_AlbedoBoost: 1
    m_TemporalCoherenceThreshold: 1
    m_EnvironmentLightingMode: 0
    m_EnableBakedLightmaps: 1
    m_EnableRealtimeLightmaps: 1
  m_LightmapEditorSettings:
    serializedVersion: 10
    m_Resolution: 2
    m_BakeResolution: 40
    m_AtlasSize: 1024
    m_AO: 0
    m_AOMaxDistance: 1
    m_CompAOExponent: 1
    m_CompAOExponentDirect: 0
    m_Padding: 2
    m_LightmapParameters: {fileID: 0}
    m_LightmapsBakeMode: 1
    m_TextureCompression: 1
    m_FinalGather: 0
    m_FinalGatherFiltering: 1
    m_FinalGatherRayCount: 256
    m_ReflectionCompression: 2
    m_MixedBakeMode: 1
    m_BakeBackend: 0
    m_PVRSampling: 1
    m_PVRDirectSampleCount: 32
    m_PVRSampleCount: 500
    m_PVRBounces: 2
    m_PVRFilterTypeDirect: 0
    m_PVRFilterTypeIndirect: 0
    m_PVRFilterTypeAO: 0
    m_PVRFilteringMode: 1
    m_PVRCulling: 1
    m_PVRFilteringGaussRadiusDirect: 1
    m_PVRFilteringGaussRadiusIndirect: 5
    m_PVRFilteringGaussRadiusAO: 2
    m_PVRFilteringAtrousPositionSigmaDirect: 0.5
    m_PVRFilteringAtrousPositionSigmaIndirect: 2
    m_PVRFilteringAtrousPositionSigmaAO: 1
    m_ShowResolutionOverlay: 1
  m_LightingDataAsset: {fileID: 0}
  m_UseShadowmask: 0
--- !u!196 &4
NavMeshSettings:
  serializedVersion: 2
  m_ObjectHideFlags: 0
  m_BuildSettings:
    serializedVersion: 2
    agentTypeID: 0
    agentRadius: 0.5
    agentHeight: 2
    agentSlope: 45
    agentClimb: 0.4
    ledgeDropHeight: 0
    maxJumpAcrossDistance: 0
    minRegionArea: 2
    manualCellSize: 0
    cellSize: 0.16666667
    manualTileSize: 0
    tileSize: 256
    accuratePlacement: 0
    debug:
      m_Flags: 0
  m_NavMeshData: {fileID: 0}
--- !u!1001 &389436070
Prefab:
  m_ObjectHideFlags: 0
  serializedVersion: 2
  m_Modification:
    m_TransformParent: {fileID: 0}
    m_Modifications:
    - target: {fileID: 4855791707821074, guid: e7c511a5d6c6245608a3f19b3c707dbc, type: 2}
      propertyPath: m_LocalPosition.x
      value: 0
      objectReference: {fileID: 0}
    - target: {fileID: 4855791707821074, guid: e7c511a5d6c6245608a3f19b3c707dbc, type: 2}
      propertyPath: m_LocalPosition.y
      value: 15
      objectReference: {fileID: 0}
    - target: {fileID: 4855791707821074, guid: e7c511a5d6c6245608a3f19b3c707dbc, type: 2}
      propertyPath: m_LocalPosition.z
      value: 0
      objectReference: {fileID: 0}
    - target: {fileID: 4855791707821074, guid: e7c511a5d6c6245608a3f19b3c707dbc, type: 2}
      propertyPath: m_LocalRotation.x
      value: 0
      objectReference: {fileID: 0}
    - target: {fileID: 4855791707821074, guid: e7c511a5d6c6245608a3f19b3c707dbc, type: 2}
      propertyPath: m_LocalRotation.y
      value: 0
      objectReference: {fileID: 0}
    - target: {fileID: 4855791707821074, guid: e7c511a5d6c6245608a3f19b3c707dbc, type: 2}
      propertyPath: m_LocalRotation.z
      value: 0
      objectReference: {fileID: 0}
    - target: {fileID: 4855791707821074, guid: e7c511a5d6c6245608a3f19b3c707dbc, type: 2}
      propertyPath: m_LocalRotation.w
      value: 1
      objectReference: {fileID: 0}
    - target: {fileID: 4855791707821074, guid: e7c511a5d6c6245608a3f19b3c707dbc, type: 2}
      propertyPath: m_RootOrder
      value: 2
      objectReference: {fileID: 0}
    - target: {fileID: 212261161974074162, guid: e7c511a5d6c6245608a3f19b3c707dbc,
        type: 2}
      propertyPath: m_SortingOrder
      value: -150
      objectReference: {fileID: 0}
    - target: {fileID: 212028554863707612, guid: e7c511a5d6c6245608a3f19b3c707dbc,
        type: 2}
      propertyPath: m_SortingOrder
      value: -150
      objectReference: {fileID: 0}
    m_RemovedComponents: []
  m_ParentPrefab: {fileID: 100100000, guid: e7c511a5d6c6245608a3f19b3c707dbc, type: 2}
  m_IsPrefabParent: 0
--- !u!1 &582913388
GameObject:
  m_ObjectHideFlags: 0
  m_PrefabParentObject: {fileID: 0}
  m_PrefabInternal: {fileID: 0}
  serializedVersion: 5
  m_Component:
  - component: {fileID: 582913391}
  - component: {fileID: 582913390}
  - component: {fileID: 582913389}
  m_Layer: 0
  m_Name: EventSystem
  m_TagString: Untagged
  m_Icon: {fileID: 0}
  m_NavMeshLayer: 0
  m_StaticEditorFlags: 0
  m_IsActive: 1
--- !u!114 &582913389
MonoBehaviour:
  m_ObjectHideFlags: 0
  m_PrefabParentObject: {fileID: 0}
  m_PrefabInternal: {fileID: 0}
  m_GameObject: {fileID: 582913388}
  m_Enabled: 1
  m_EditorHideFlags: 0
  m_Script: {fileID: 1077351063, guid: f70555f144d8491a825f0804e09c671c, type: 3}
  m_Name: 
  m_EditorClassIdentifier: 
  m_HorizontalAxis: Horizontal
  m_VerticalAxis: Vertical
  m_SubmitButton: Submit
  m_CancelButton: Cancel
  m_InputActionsPerSecond: 10
  m_RepeatDelay: 0.5
  m_ForceModuleActive: 0
--- !u!114 &582913390
MonoBehaviour:
  m_ObjectHideFlags: 0
  m_PrefabParentObject: {fileID: 0}
  m_PrefabInternal: {fileID: 0}
  m_GameObject: {fileID: 582913388}
  m_Enabled: 1
  m_EditorHideFlags: 0
  m_Script: {fileID: -619905303, guid: f70555f144d8491a825f0804e09c671c, type: 3}
  m_Name: 
  m_EditorClassIdentifier: 
  m_FirstSelected: {fileID: 0}
  m_sendNavigationEvents: 1
  m_DragThreshold: 5
--- !u!4 &582913391
Transform:
  m_ObjectHideFlags: 0
  m_PrefabParentObject: {fileID: 0}
  m_PrefabInternal: {fileID: 0}
  m_GameObject: {fileID: 582913388}
  m_LocalRotation: {x: 0, y: 0, z: 0, w: 1}
  m_LocalPosition: {x: 0, y: 0, z: 0}
  m_LocalScale: {x: 1, y: 1, z: 1}
  m_Children: []
  m_Father: {fileID: 0}
  m_RootOrder: 6
  m_LocalEulerAnglesHint: {x: 0, y: 0, z: 0}
--- !u!1001 &683782306
Prefab:
  m_ObjectHideFlags: 0
  serializedVersion: 2
  m_Modification:
    m_TransformParent: {fileID: 0}
    m_Modifications:
    - target: {fileID: 4372301864858038, guid: 5a404312f1447428eb81411b1d21daec, type: 2}
      propertyPath: m_LocalPosition.x
      value: 0
      objectReference: {fileID: 0}
    - target: {fileID: 4372301864858038, guid: 5a404312f1447428eb81411b1d21daec, type: 2}
      propertyPath: m_LocalPosition.y
      value: 20
      objectReference: {fileID: 0}
    - target: {fileID: 4372301864858038, guid: 5a404312f1447428eb81411b1d21daec, type: 2}
      propertyPath: m_LocalPosition.z
      value: 0
      objectReference: {fileID: 0}
    - target: {fileID: 4372301864858038, guid: 5a404312f1447428eb81411b1d21daec, type: 2}
      propertyPath: m_LocalRotation.x
      value: 0
      objectReference: {fileID: 0}
    - target: {fileID: 4372301864858038, guid: 5a404312f1447428eb81411b1d21daec, type: 2}
      propertyPath: m_LocalRotation.y
      value: 0
      objectReference: {fileID: 0}
    - target: {fileID: 4372301864858038, guid: 5a404312f1447428eb81411b1d21daec, type: 2}
      propertyPath: m_LocalRotation.z
      value: 0
      objectReference: {fileID: 0}
    - target: {fileID: 4372301864858038, guid: 5a404312f1447428eb81411b1d21daec, type: 2}
      propertyPath: m_LocalRotation.w
      value: 1
      objectReference: {fileID: 0}
    - target: {fileID: 4372301864858038, guid: 5a404312f1447428eb81411b1d21daec, type: 2}
      propertyPath: m_RootOrder
      value: 4
      objectReference: {fileID: 0}
    - target: {fileID: 212216080876485346, guid: 5a404312f1447428eb81411b1d21daec,
        type: 2}
      propertyPath: m_SortingOrder
      value: -223
      objectReference: {fileID: 0}
    - target: {fileID: 212798630842634014, guid: 5a404312f1447428eb81411b1d21daec,
        type: 2}
      propertyPath: m_SortingOrder
      value: -186
      objectReference: {fileID: 0}
    - target: {fileID: 212186775433436692, guid: 5a404312f1447428eb81411b1d21daec,
        type: 2}
      propertyPath: m_SortingOrder
      value: -170
      objectReference: {fileID: 0}
    - target: {fileID: 212253190450989688, guid: 5a404312f1447428eb81411b1d21daec,
        type: 2}
      propertyPath: m_SortingOrder
      value: -201
      objectReference: {fileID: 0}
    - target: {fileID: 212629485146107768, guid: 5a404312f1447428eb81411b1d21daec,
        type: 2}
      propertyPath: m_SortingOrder
      value: -151
      objectReference: {fileID: 0}
    - target: {fileID: 212554334756182684, guid: 5a404312f1447428eb81411b1d21daec,
        type: 2}
      propertyPath: m_SortingOrder
      value: -239
      objectReference: {fileID: 0}
    - target: {fileID: 212077251131314328, guid: 5a404312f1447428eb81411b1d21daec,
        type: 2}
      propertyPath: m_SortingOrder
      value: -202
      objectReference: {fileID: 0}
    - target: {fileID: 212092770078449488, guid: 5a404312f1447428eb81411b1d21daec,
        type: 2}
      propertyPath: m_SortingOrder
      value: -202
      objectReference: {fileID: 0}
    - target: {fileID: 212632059744699578, guid: 5a404312f1447428eb81411b1d21daec,
        type: 2}
      propertyPath: m_SortingOrder
      value: -261
      objectReference: {fileID: 0}
    - target: {fileID: 212534917503579658, guid: 5a404312f1447428eb81411b1d21daec,
        type: 2}
      propertyPath: m_SortingOrder
      value: -257
      objectReference: {fileID: 0}
    - target: {fileID: 212588157032381370, guid: 5a404312f1447428eb81411b1d21daec,
        type: 2}
      propertyPath: m_SortingOrder
      value: -276
      objectReference: {fileID: 0}
    - target: {fileID: 212005224043779786, guid: 5a404312f1447428eb81411b1d21daec,
        type: 2}
      propertyPath: m_SortingOrder
      value: -242
      objectReference: {fileID: 0}
    - target: {fileID: 212105676630130120, guid: 5a404312f1447428eb81411b1d21daec,
        type: 2}
      propertyPath: m_SortingOrder
      value: -205
      objectReference: {fileID: 0}
    - target: {fileID: 212133707067097432, guid: 5a404312f1447428eb81411b1d21daec,
        type: 2}
      propertyPath: m_SortingOrder
      value: -280
      objectReference: {fileID: 0}
    - target: {fileID: 212613013975072458, guid: 5a404312f1447428eb81411b1d21daec,
        type: 2}
      propertyPath: m_SortingOrder
      value: -130
      objectReference: {fileID: 0}
    - target: {fileID: 212198209528280054, guid: 5a404312f1447428eb81411b1d21daec,
        type: 2}
      propertyPath: m_SortingOrder
      value: -202
      objectReference: {fileID: 0}
    - target: {fileID: 212686085730768614, guid: 5a404312f1447428eb81411b1d21daec,
        type: 2}
      propertyPath: m_SortingOrder
      value: -220
      objectReference: {fileID: 0}
    - target: {fileID: 212819581592389354, guid: 5a404312f1447428eb81411b1d21daec,
        type: 2}
      propertyPath: m_SortingOrder
      value: -167
      objectReference: {fileID: 0}
    - target: {fileID: 212263739474039890, guid: 5a404312f1447428eb81411b1d21daec,
        type: 2}
      propertyPath: m_SortingOrder
      value: -148
      objectReference: {fileID: 0}
    - target: {fileID: 212802804671134566, guid: 5a404312f1447428eb81411b1d21daec,
        type: 2}
      propertyPath: m_SortingOrder
      value: -202
      objectReference: {fileID: 0}
    - target: {fileID: 212861602572387274, guid: 5a404312f1447428eb81411b1d21daec,
        type: 2}
      propertyPath: m_SortingOrder
      value: -189
      objectReference: {fileID: 0}
    - target: {fileID: 212306687497510698, guid: 5a404312f1447428eb81411b1d21daec,
        type: 2}
      propertyPath: m_SortingOrder
      value: -132
      objectReference: {fileID: 0}
    m_RemovedComponents: []
  m_ParentPrefab: {fileID: 100100000, guid: 5a404312f1447428eb81411b1d21daec, type: 2}
  m_IsPrefabParent: 0
--- !u!1001 &1007566103
Prefab:
  m_ObjectHideFlags: 0
  serializedVersion: 2
  m_Modification:
    m_TransformParent: {fileID: 0}
    m_Modifications:
    - target: {fileID: 4775967891043368, guid: bff10b040b4944772ba12faa3253a105, type: 2}
      propertyPath: m_LocalPosition.x
      value: 0
      objectReference: {fileID: 0}
    - target: {fileID: 4775967891043368, guid: bff10b040b4944772ba12faa3253a105, type: 2}
      propertyPath: m_LocalPosition.y
      value: 0
      objectReference: {fileID: 0}
    - target: {fileID: 4775967891043368, guid: bff10b040b4944772ba12faa3253a105, type: 2}
      propertyPath: m_LocalPosition.z
      value: 0
      objectReference: {fileID: 0}
    - target: {fileID: 4775967891043368, guid: bff10b040b4944772ba12faa3253a105, type: 2}
      propertyPath: m_LocalRotation.x
      value: 0
      objectReference: {fileID: 0}
    - target: {fileID: 4775967891043368, guid: bff10b040b4944772ba12faa3253a105, type: 2}
      propertyPath: m_LocalRotation.y
      value: 0
      objectReference: {fileID: 0}
    - target: {fileID: 4775967891043368, guid: bff10b040b4944772ba12faa3253a105, type: 2}
      propertyPath: m_LocalRotation.z
      value: 0
      objectReference: {fileID: 0}
    - target: {fileID: 4775967891043368, guid: bff10b040b4944772ba12faa3253a105, type: 2}
      propertyPath: m_LocalRotation.w
      value: 1
      objectReference: {fileID: 0}
    - target: {fileID: 4775967891043368, guid: bff10b040b4944772ba12faa3253a105, type: 2}
      propertyPath: m_RootOrder
      value: 5
      objectReference: {fileID: 0}
    m_RemovedComponents: []
  m_ParentPrefab: {fileID: 100100000, guid: bff10b040b4944772ba12faa3253a105, type: 2}
  m_IsPrefabParent: 0
--- !u!1001 &1018811114
Prefab:
  m_ObjectHideFlags: 0
  serializedVersion: 2
  m_Modification:
    m_TransformParent: {fileID: 0}
    m_Modifications:
    - target: {fileID: 4036011643701276, guid: 1256cc8a9ef63094ca87b1b76a7c5930, type: 2}
      propertyPath: m_LocalPosition.x
      value: 0
      objectReference: {fileID: 0}
    - target: {fileID: 4036011643701276, guid: 1256cc8a9ef63094ca87b1b76a7c5930, type: 2}
      propertyPath: m_LocalPosition.y
      value: 0
      objectReference: {fileID: 0}
    - target: {fileID: 4036011643701276, guid: 1256cc8a9ef63094ca87b1b76a7c5930, type: 2}
      propertyPath: m_LocalPosition.z
      value: 0
      objectReference: {fileID: 0}
    - target: {fileID: 4036011643701276, guid: 1256cc8a9ef63094ca87b1b76a7c5930, type: 2}
      propertyPath: m_LocalRotation.x
      value: 0
      objectReference: {fileID: 0}
    - target: {fileID: 4036011643701276, guid: 1256cc8a9ef63094ca87b1b76a7c5930, type: 2}
      propertyPath: m_LocalRotation.y
      value: 0
      objectReference: {fileID: 0}
    - target: {fileID: 4036011643701276, guid: 1256cc8a9ef63094ca87b1b76a7c5930, type: 2}
      propertyPath: m_LocalRotation.z
      value: 0
      objectReference: {fileID: 0}
    - target: {fileID: 4036011643701276, guid: 1256cc8a9ef63094ca87b1b76a7c5930, type: 2}
      propertyPath: m_LocalRotation.w
      value: 1
      objectReference: {fileID: 0}
    - target: {fileID: 4036011643701276, guid: 1256cc8a9ef63094ca87b1b76a7c5930, type: 2}
      propertyPath: m_RootOrder
      value: 3
      objectReference: {fileID: 0}
    - target: {fileID: 1996549745185886, guid: 1256cc8a9ef63094ca87b1b76a7c5930, type: 2}
      propertyPath: m_IsActive
      value: 1
      objectReference: {fileID: 0}
    m_RemovedComponents: []
  m_ParentPrefab: {fileID: 100100000, guid: 1256cc8a9ef63094ca87b1b76a7c5930, type: 2}
  m_IsPrefabParent: 0
--- !u!1001 &1290466872
Prefab:
  m_ObjectHideFlags: 0
  serializedVersion: 2
  m_Modification:
    m_TransformParent: {fileID: 0}
    m_Modifications:
    - target: {fileID: 224702861268450878, guid: 63b7fe016f77b4a92839ef4c4eea7c04,
        type: 2}
      propertyPath: m_LocalPosition.x
      value: 0
      objectReference: {fileID: 0}
    - target: {fileID: 224702861268450878, guid: 63b7fe016f77b4a92839ef4c4eea7c04,
        type: 2}
      propertyPath: m_LocalPosition.y
      value: 0
      objectReference: {fileID: 0}
    - target: {fileID: 224702861268450878, guid: 63b7fe016f77b4a92839ef4c4eea7c04,
        type: 2}
      propertyPath: m_LocalPosition.z
      value: 0
      objectReference: {fileID: 0}
    - target: {fileID: 224702861268450878, guid: 63b7fe016f77b4a92839ef4c4eea7c04,
        type: 2}
      propertyPath: m_LocalRotation.x
      value: 0
      objectReference: {fileID: 0}
    - target: {fileID: 224702861268450878, guid: 63b7fe016f77b4a92839ef4c4eea7c04,
        type: 2}
      propertyPath: m_LocalRotation.y
      value: 0
      objectReference: {fileID: 0}
    - target: {fileID: 224702861268450878, guid: 63b7fe016f77b4a92839ef4c4eea7c04,
        type: 2}
      propertyPath: m_LocalRotation.z
      value: 0
      objectReference: {fileID: 0}
    - target: {fileID: 224702861268450878, guid: 63b7fe016f77b4a92839ef4c4eea7c04,
        type: 2}
      propertyPath: m_LocalRotation.w
      value: 1
      objectReference: {fileID: 0}
    - target: {fileID: 224702861268450878, guid: 63b7fe016f77b4a92839ef4c4eea7c04,
        type: 2}
      propertyPath: m_RootOrder
      value: 1
      objectReference: {fileID: 0}
    - target: {fileID: 224702861268450878, guid: 63b7fe016f77b4a92839ef4c4eea7c04,
        type: 2}
      propertyPath: m_AnchoredPosition.x
      value: 0
      objectReference: {fileID: 0}
    - target: {fileID: 224702861268450878, guid: 63b7fe016f77b4a92839ef4c4eea7c04,
        type: 2}
      propertyPath: m_AnchoredPosition.y
      value: 0
      objectReference: {fileID: 0}
    - target: {fileID: 224702861268450878, guid: 63b7fe016f77b4a92839ef4c4eea7c04,
        type: 2}
      propertyPath: m_SizeDelta.x
      value: 0
      objectReference: {fileID: 0}
    - target: {fileID: 224702861268450878, guid: 63b7fe016f77b4a92839ef4c4eea7c04,
        type: 2}
      propertyPath: m_SizeDelta.y
      value: 0
      objectReference: {fileID: 0}
    - target: {fileID: 224702861268450878, guid: 63b7fe016f77b4a92839ef4c4eea7c04,
        type: 2}
      propertyPath: m_AnchorMin.x
      value: 0
      objectReference: {fileID: 0}
    - target: {fileID: 224702861268450878, guid: 63b7fe016f77b4a92839ef4c4eea7c04,
        type: 2}
      propertyPath: m_AnchorMin.y
      value: 0
      objectReference: {fileID: 0}
    - target: {fileID: 224702861268450878, guid: 63b7fe016f77b4a92839ef4c4eea7c04,
        type: 2}
      propertyPath: m_AnchorMax.x
      value: 0
      objectReference: {fileID: 0}
    - target: {fileID: 224702861268450878, guid: 63b7fe016f77b4a92839ef4c4eea7c04,
        type: 2}
      propertyPath: m_AnchorMax.y
      value: 0
      objectReference: {fileID: 0}
    - target: {fileID: 224702861268450878, guid: 63b7fe016f77b4a92839ef4c4eea7c04,
        type: 2}
      propertyPath: m_Pivot.x
      value: 0
      objectReference: {fileID: 0}
    - target: {fileID: 224702861268450878, guid: 63b7fe016f77b4a92839ef4c4eea7c04,
        type: 2}
      propertyPath: m_Pivot.y
      value: 0
      objectReference: {fileID: 0}
    - target: {fileID: 1558004458558290, guid: 63b7fe016f77b4a92839ef4c4eea7c04, type: 2}
      propertyPath: m_IsActive
      value: 0
      objectReference: {fileID: 0}
    m_RemovedComponents: []
  m_ParentPrefab: {fileID: 100100000, guid: 63b7fe016f77b4a92839ef4c4eea7c04, type: 2}
  m_IsPrefabParent: 0
--- !u!1001 &1460968700
Prefab:
  m_ObjectHideFlags: 0
  serializedVersion: 2
  m_Modification:
    m_TransformParent: {fileID: 0}
    m_Modifications:
    - target: {fileID: 4364351494216472, guid: c4fad1e49920a7c47bfe4170d9694298, type: 2}
      propertyPath: m_LocalPosition.x
      value: 0
      objectReference: {fileID: 0}
    - target: {fileID: 4364351494216472, guid: c4fad1e49920a7c47bfe4170d9694298, type: 2}
      propertyPath: m_LocalPosition.y
      value: 0
      objectReference: {fileID: 0}
    - target: {fileID: 4364351494216472, guid: c4fad1e49920a7c47bfe4170d9694298, type: 2}
      propertyPath: m_LocalPosition.z
      value: -10
      objectReference: {fileID: 0}
    - target: {fileID: 4364351494216472, guid: c4fad1e49920a7c47bfe4170d9694298, type: 2}
      propertyPath: m_LocalRotation.x
      value: 0
      objectReference: {fileID: 0}
    - target: {fileID: 4364351494216472, guid: c4fad1e49920a7c47bfe4170d9694298, type: 2}
      propertyPath: m_LocalRotation.y
      value: 0
      objectReference: {fileID: 0}
    - target: {fileID: 4364351494216472, guid: c4fad1e49920a7c47bfe4170d9694298, type: 2}
      propertyPath: m_LocalRotation.z
      value: 0
      objectReference: {fileID: 0}
    - target: {fileID: 4364351494216472, guid: c4fad1e49920a7c47bfe4170d9694298, type: 2}
      propertyPath: m_LocalRotation.w
      value: 1
      objectReference: {fileID: 0}
    - target: {fileID: 4364351494216472, guid: c4fad1e49920a7c47bfe4170d9694298, type: 2}
      propertyPath: m_RootOrder
      value: 0
      objectReference: {fileID: 0}
    - target: {fileID: 1793687793471746, guid: c4fad1e49920a7c47bfe4170d9694298, type: 2}
      propertyPath: m_IsActive
      value: 1
      objectReference: {fileID: 0}
    m_RemovedComponents: []
  m_ParentPrefab: {fileID: 100100000, guid: c4fad1e49920a7c47bfe4170d9694298, type: 2}
  m_IsPrefabParent: 0
