%YAML 1.1
%TAG !u! tag:unity3d.com,2011:
--- !u!74 &7400000
AnimationClip:
  m_ObjectHideFlags: 0
  m_PrefabParentObject: {fileID: 0}
  m_PrefabInternal: {fileID: 0}
  m_Name: DilopoSpit
  serializedVersion: 6
  m_Legacy: 0
  m_Compressed: 0
  m_UseHighQualityCurve: 1
  m_RotationCurves: []
  m_CompressedRotationCurves: []
  m_EulerCurves: []
  m_PositionCurves: []
  m_ScaleCurves: []
  m_FloatCurves: []
  m_PPtrCurves:
  - curve:
    - time: 0
      value: {fileID: 21300000, guid: 414e70fdfab18b34d84b4ba2ae43a7d6, type: 3}
    - time: 0.083333336
      value: {fileID: 21300000, guid: b47b985078e46a445aba0f7cfbe2c2dc, type: 3}
    - time: 0.16666667
      value: {fileID: 21300000, guid: d2cb9ff4e0297e04f9b6999ea3c21d41, type: 3}
    - time: 0.25
      value: {fileID: 21300000, guid: 0fc204688fdc38f4d9b8467f205f5758, type: 3}
    - time: 0.33333334
      value: {fileID: 21300000, guid: 43c424cbc78407546b3d094f3381efcb, type: 3}
    - time: 0.41666666
      value: {fileID: 21300000, guid: 94bb3ce5f029ff645add67621901a4c2, type: 3}
    - time: 0.5
      value: {fileID: 21300000, guid: d003234a0ec0e62419569a585ef250db, type: 3}
    - time: 0.5833333
      value: {fileID: 21300000, guid: 6646bbefc1ab01641aed6c44d6ba605a, type: 3}
    - time: 0.6666667
      value: {fileID: 21300000, guid: 13c2f6ad1b8098349ad4d72994ac1639, type: 3}
    - time: 0.75
      value: {fileID: 21300000, guid: 139994c62fa42fe499cb4173875456ce, type: 3}
    attribute: m_Sprite
    path: 
    classID: 212
    script: {fileID: 0}
  m_SampleRate: 12
  m_WrapMode: 0
  m_Bounds:
    m_Center: {x: 0, y: 0, z: 0}
    m_Extent: {x: 0, y: 0, z: 0}
  m_ClipBindingConstant:
    genericBindings:
    - serializedVersion: 2
      path: 0
      attribute: 0
      script: {fileID: 0}
      typeID: 212
      customType: 23
      isPPtrCurve: 1
    pptrCurveMapping:
    - {fileID: 21300000, guid: 414e70fdfab18b34d84b4ba2ae43a7d6, type: 3}
    - {fileID: 21300000, guid: b47b985078e46a445aba0f7cfbe2c2dc, type: 3}
    - {fileID: 21300000, guid: d2cb9ff4e0297e04f9b6999ea3c21d41, type: 3}
    - {fileID: 21300000, guid: 0fc204688fdc38f4d9b8467f205f5758, type: 3}
    - {fileID: 21300000, guid: 43c424cbc78407546b3d094f3381efcb, type: 3}
    - {fileID: 21300000, guid: 94bb3ce5f029ff645add67621901a4c2, type: 3}
    - {fileID: 21300000, guid: d003234a0ec0e62419569a585ef250db, type: 3}
    - {fileID: 21300000, guid: 6646bbefc1ab01641aed6c44d6ba605a, type: 3}
    - {fileID: 21300000, guid: 13c2f6ad1b8098349ad4d72994ac1639, type: 3}
    - {fileID: 21300000, guid: 139994c62fa42fe499cb4173875456ce, type: 3}
  m_AnimationClipSettings:
    serializedVersion: 2
    m_AdditiveReferencePoseClip: {fileID: 0}
    m_AdditiveReferencePoseTime: 0
    m_StartTime: 0
    m_StopTime: 0.8333333
    m_OrientationOffsetY: 0
    m_Level: 0
    m_CycleOffset: 0
    m_HasAdditiveReferencePose: 0
    m_LoopTime: 1
    m_LoopBlend: 0
    m_LoopBlendOrientation: 0
    m_LoopBlendPositionY: 0
    m_LoopBlendPositionXZ: 0
    m_KeepOriginalOrientation: 0
    m_KeepOriginalPositionY: 1
    m_KeepOriginalPositionXZ: 0
    m_HeightFromFeet: 0
    m_Mirror: 0
  m_EditorCurves: []
  m_EulerEditorCurves: []
  m_HasGenericRootTransform: 0
  m_HasMotionFloatCurves: 0
  m_GenerateMotionCurves: 0
  m_Events:
  - time: 0.33333334
    functionName: Spit
    data: 
    objectReferenceParameter: {fileID: 0}
    floatParameter: 0
    intParameter: 0
    messageOptions: 0
  - time: 0.75
    functionName: SpitComplete
    data: 
    objectReferenceParameter: {fileID: 0}
    floatParameter: 0
    intParameter: 0
    messageOptions: 0
