%YAML 1.1
%TAG !u! tag:unity3d.com,2011:
--- !u!74 &7400000
AnimationClip:
  m_ObjectHideFlags: 0
  m_PrefabParentObject: {fileID: 0}
  m_PrefabInternal: {fileID: 0}
  m_Name: DilopoIdle
  serializedVersion: 6
  m_Legacy: 0
  m_Compressed: 0
  m_UseHighQualityCurve: 1
  m_RotationCurves: []
  m_CompressedRotationCurves: []
  m_EulerCurves: []
  m_PositionCurves: []
  m_ScaleCurves: []
  m_FloatCurves: []
  m_PPtrCurves:
  - curve:
    - time: 0
      value: {fileID: 21300000, guid: 9d5a149f8dd678e429d1029a9a2309cf, type: 3}
    - time: 0.1
      value: {fileID: 21300000, guid: 599948a40815fb6459191bddb5ddb747, type: 3}
    - time: 0.2
      value: {fileID: 21300000, guid: 0f7a230ad98f0fc40a856a43b70d119c, type: 3}
    - time: 0.3
      value: {fileID: 21300000, guid: 136ba65f0708da44f8813c5d79a036fc, type: 3}
    - time: 0.4
      value: {fileID: 21300000, guid: 869cf16b5f5cdb94a95183673d32d3b3, type: 3}
    - time: 0.5
      value: {fileID: 21300000, guid: 03c98507b0509714c83ad0c8b42deda4, type: 3}
    - time: 0.6
      value: {fileID: 21300000, guid: e89135590b17fbd4281228928b36b55d, type: 3}
    - time: 0.7
      value: {fileID: 21300000, guid: c010ad54f4f17054eacba8300f25f51c, type: 3}
    - time: 0.8
      value: {fileID: 21300000, guid: 79fadf1bd6939f74aa24317b23e346bb, type: 3}
    - time: 0.9
      value: {fileID: 21300000, guid: 350392da6ecb07e419ea8d26d071fe39, type: 3}
    attribute: m_Sprite
    path: 
    classID: 212
    script: {fileID: 0}
  m_SampleRate: 10
  m_WrapMode: 0
  m_Bounds:
    m_Center: {x: 0, y: 0, z: 0}
    m_Extent: {x: 0, y: 0, z: 0}
  m_ClipBindingConstant:
    genericBindings:
    - serializedVersion: 2
      path: 0
      attribute: 0
      script: {fileID: 0}
      typeID: 212
      customType: 23
      isPPtrCurve: 1
    pptrCurveMapping:
    - {fileID: 21300000, guid: 9d5a149f8dd678e429d1029a9a2309cf, type: 3}
    - {fileID: 21300000, guid: 599948a40815fb6459191bddb5ddb747, type: 3}
    - {fileID: 21300000, guid: 0f7a230ad98f0fc40a856a43b70d119c, type: 3}
    - {fileID: 21300000, guid: 136ba65f0708da44f8813c5d79a036fc, type: 3}
    - {fileID: 21300000, guid: 869cf16b5f5cdb94a95183673d32d3b3, type: 3}
    - {fileID: 21300000, guid: 03c98507b0509714c83ad0c8b42deda4, type: 3}
    - {fileID: 21300000, guid: e89135590b17fbd4281228928b36b55d, type: 3}
    - {fileID: 21300000, guid: c010ad54f4f17054eacba8300f25f51c, type: 3}
    - {fileID: 21300000, guid: 79fadf1bd6939f74aa24317b23e346bb, type: 3}
    - {fileID: 21300000, guid: 350392da6ecb07e419ea8d26d071fe39, type: 3}
  m_AnimationClipSettings:
    serializedVersion: 2
    m_AdditiveReferencePoseClip: {fileID: 0}
    m_AdditiveReferencePoseTime: 0
    m_StartTime: 0
    m_StopTime: 1
    m_OrientationOffsetY: 0
    m_Level: 0
    m_CycleOffset: 0
    m_HasAdditiveReferencePose: 0
    m_LoopTime: 1
    m_LoopBlend: 0
    m_LoopBlendOrientation: 0
    m_LoopBlendPositionY: 0
    m_LoopBlendPositionXZ: 0
    m_KeepOriginalOrientation: 0
    m_KeepOriginalPositionY: 1
    m_KeepOriginalPositionXZ: 0
    m_HeightFromFeet: 0
    m_Mirror: 0
  m_EditorCurves: []
  m_EulerEditorCurves: []
  m_HasGenericRootTransform: 0
  m_HasMotionFloatCurves: 0
  m_GenerateMotionCurves: 0
  m_Events: []
