%YAML 1.1
%TAG !u! tag:unity3d.com,2011:
--- !u!74 &7400000
AnimationClip:
  m_ObjectHideFlags: 0
  m_PrefabParentObject: {fileID: 0}
  m_PrefabInternal: {fileID: 0}
  m_Name: DimeWalk
  serializedVersion: 6
  m_Legacy: 0
  m_Compressed: 0
  m_UseHighQualityCurve: 1
  m_RotationCurves: []
  m_CompressedRotationCurves: []
  m_EulerCurves: []
  m_PositionCurves: []
  m_ScaleCurves: []
  m_FloatCurves: []
  m_PPtrCurves:
  - curve:
    - time: 0
      value: {fileID: 21300000, guid: 207d564a809769446ab5766911ef022f, type: 3}
    - time: 0.083333336
      value: {fileID: 21300000, guid: 0bdaed2da8b1846478022ede65cc5677, type: 3}
    - time: 0.16666667
      value: {fileID: 21300000, guid: b267952e938c1f34282b3c7db30d013a, type: 3}
    - time: 0.25
      value: {fileID: 21300000, guid: 6def910becf9ec34a80f4831cabfd3e7, type: 3}
    - time: 0.33333334
      value: {fileID: 21300000, guid: 86409d329eea40b4a82221d2df3c7e5f, type: 3}
    - time: 0.41666666
      value: {fileID: 21300000, guid: 1bcac3f90575f924f95cd14f8f783bb0, type: 3}
    - time: 0.5
      value: {fileID: 21300000, guid: 00b73b7aa37b3a342bbdfc8d1388cbce, type: 3}
    - time: 0.5833333
      value: {fileID: 21300000, guid: 7baf930c5051a6544a9970f80e7f50e1, type: 3}
    - time: 0.6666667
      value: {fileID: 21300000, guid: f9b805a1e5f994d4caef2c457bd84ba8, type: 3}
    - time: 0.75
      value: {fileID: 21300000, guid: 5deb140fbf53b9e4e933566c5cd67aae, type: 3}
    - time: 0.8333333
      value: {fileID: 21300000, guid: 44b95958f8ac3b4469c487a7204975e3, type: 3}
    - time: 0.9166667
      value: {fileID: 21300000, guid: 3e00f2d867a69b545b46b373ecde1072, type: 3}
    - time: 1
      value: {fileID: 21300000, guid: 409d9fadefe3aae48952bf86cabe9bbe, type: 3}
    - time: 1.0833334
      value: {fileID: 21300000, guid: 4427f5c0b3dd23f4fa67fa6118ec9ba4, type: 3}
    - time: 1.1666666
      value: {fileID: 21300000, guid: bc99d7c9dd573df4aae7a24163051edb, type: 3}
    attribute: m_Sprite
    path: 
    classID: 212
    script: {fileID: 0}
  m_SampleRate: 12
  m_WrapMode: 0
  m_Bounds:
    m_Center: {x: 0, y: 0, z: 0}
    m_Extent: {x: 0, y: 0, z: 0}
  m_ClipBindingConstant:
    genericBindings:
    - serializedVersion: 2
      path: 0
      attribute: 0
      script: {fileID: 0}
      typeID: 212
      customType: 23
      isPPtrCurve: 1
    pptrCurveMapping:
    - {fileID: 21300000, guid: 207d564a809769446ab5766911ef022f, type: 3}
    - {fileID: 21300000, guid: 0bdaed2da8b1846478022ede65cc5677, type: 3}
    - {fileID: 21300000, guid: b267952e938c1f34282b3c7db30d013a, type: 3}
    - {fileID: 21300000, guid: 6def910becf9ec34a80f4831cabfd3e7, type: 3}
    - {fileID: 21300000, guid: 86409d329eea40b4a82221d2df3c7e5f, type: 3}
    - {fileID: 21300000, guid: 1bcac3f90575f924f95cd14f8f783bb0, type: 3}
    - {fileID: 21300000, guid: 00b73b7aa37b3a342bbdfc8d1388cbce, type: 3}
    - {fileID: 21300000, guid: 7baf930c5051a6544a9970f80e7f50e1, type: 3}
    - {fileID: 21300000, guid: f9b805a1e5f994d4caef2c457bd84ba8, type: 3}
    - {fileID: 21300000, guid: 5deb140fbf53b9e4e933566c5cd67aae, type: 3}
    - {fileID: 21300000, guid: 44b95958f8ac3b4469c487a7204975e3, type: 3}
    - {fileID: 21300000, guid: 3e00f2d867a69b545b46b373ecde1072, type: 3}
    - {fileID: 21300000, guid: 409d9fadefe3aae48952bf86cabe9bbe, type: 3}
    - {fileID: 21300000, guid: 4427f5c0b3dd23f4fa67fa6118ec9ba4, type: 3}
    - {fileID: 21300000, guid: bc99d7c9dd573df4aae7a24163051edb, type: 3}
  m_AnimationClipSettings:
    serializedVersion: 2
    m_AdditiveReferencePoseClip: {fileID: 0}
    m_AdditiveReferencePoseTime: 0
    m_StartTime: 0
    m_StopTime: 1.25
    m_OrientationOffsetY: 0
    m_Level: 0
    m_CycleOffset: 0
    m_HasAdditiveReferencePose: 0
    m_LoopTime: 1
    m_LoopBlend: 0
    m_LoopBlendOrientation: 0
    m_LoopBlendPositionY: 0
    m_LoopBlendPositionXZ: 0
    m_KeepOriginalOrientation: 0
    m_KeepOriginalPositionY: 1
    m_KeepOriginalPositionXZ: 0
    m_HeightFromFeet: 0
    m_Mirror: 0
  m_EditorCurves: []
  m_EulerEditorCurves: []
  m_HasGenericRootTransform: 0
  m_HasMotionFloatCurves: 0
  m_GenerateMotionCurves: 0
  m_Events:
  - time: 0
    functionName: playFootStepAudio
    data: 
    objectReferenceParameter: {fileID: 0}
    floatParameter: 0
    intParameter: 0
    messageOptions: 0
  - time: 0.5833333
    functionName: playFootStepAudio
    data: 
    objectReferenceParameter: {fileID: 0}
    floatParameter: 0
    intParameter: 0
    messageOptions: 0
