%YAML 1.1
%TAG !u! tag:unity3d.com,2011:
--- !u!74 &7400000
AnimationClip:
  m_ObjectHideFlags: 0
  m_PrefabParentObject: {fileID: 0}
  m_PrefabInternal: {fileID: 0}
  m_Name: HeroWalkShoot
  serializedVersion: 6
  m_Legacy: 0
  m_Compressed: 0
  m_UseHighQualityCurve: 1
  m_RotationCurves: []
  m_CompressedRotationCurves: []
  m_EulerCurves: []
  m_PositionCurves: []
  m_ScaleCurves: []
  m_FloatCurves: []
  m_PPtrCurves:
  - curve:
    - time: 0
      value: {fileID: 21300000, guid: 1dd2953b8a37c854492b991ec622cc24, type: 3}
    - time: 0.083333336
      value: {fileID: 21300000, guid: 9ad4b39ea0033f646b7babd3eb6134df, type: 3}
    - time: 0.16666667
      value: {fileID: 21300000, guid: e30a108516dd24f439f15ca516aa33c4, type: 3}
    - time: 0.25
      value: {fileID: 21300000, guid: 8993f3ce7dc78684c8515dae92ee6c34, type: 3}
    - time: 0.33333334
      value: {fileID: 21300000, guid: 4ad84aa9fbecff74ba03fad13769a57f, type: 3}
    - time: 0.41666666
      value: {fileID: 21300000, guid: ea50a40312f976c4099a3a627132a181, type: 3}
    - time: 0.5
      value: {fileID: 21300000, guid: a4854f904028d694cac75a108539a627, type: 3}
    - time: 0.5833333
      value: {fileID: 21300000, guid: 8a4252ef18b0846478beec57b970515b, type: 3}
    - time: 0.6666667
      value: {fileID: 21300000, guid: c8e9199ed43614f4f997a4a3ca11976e, type: 3}
    - time: 0.75
      value: {fileID: 21300000, guid: f3b976b7b2657d043b09f988874188a0, type: 3}
    attribute: m_Sprite
    path: 
    classID: 212
    script: {fileID: 0}
  m_SampleRate: 12
  m_WrapMode: 0
  m_Bounds:
    m_Center: {x: 0, y: 0, z: 0}
    m_Extent: {x: 0, y: 0, z: 0}
  m_ClipBindingConstant:
    genericBindings:
    - serializedVersion: 2
      path: 0
      attribute: 0
      script: {fileID: 0}
      typeID: 212
      customType: 23
      isPPtrCurve: 1
    pptrCurveMapping:
    - {fileID: 21300000, guid: 1dd2953b8a37c854492b991ec622cc24, type: 3}
    - {fileID: 21300000, guid: 9ad4b39ea0033f646b7babd3eb6134df, type: 3}
    - {fileID: 21300000, guid: e30a108516dd24f439f15ca516aa33c4, type: 3}
    - {fileID: 21300000, guid: 8993f3ce7dc78684c8515dae92ee6c34, type: 3}
    - {fileID: 21300000, guid: 4ad84aa9fbecff74ba03fad13769a57f, type: 3}
    - {fileID: 21300000, guid: ea50a40312f976c4099a3a627132a181, type: 3}
    - {fileID: 21300000, guid: a4854f904028d694cac75a108539a627, type: 3}
    - {fileID: 21300000, guid: 8a4252ef18b0846478beec57b970515b, type: 3}
    - {fileID: 21300000, guid: c8e9199ed43614f4f997a4a3ca11976e, type: 3}
    - {fileID: 21300000, guid: f3b976b7b2657d043b09f988874188a0, type: 3}
  m_AnimationClipSettings:
    serializedVersion: 2
    m_AdditiveReferencePoseClip: {fileID: 0}
    m_AdditiveReferencePoseTime: 0
    m_StartTime: 0
    m_StopTime: 0.8333333
    m_OrientationOffsetY: 0
    m_Level: 0
    m_CycleOffset: 0
    m_HasAdditiveReferencePose: 0
    m_LoopTime: 1
    m_LoopBlend: 0
    m_LoopBlendOrientation: 0
    m_LoopBlendPositionY: 0
    m_LoopBlendPositionXZ: 0
    m_KeepOriginalOrientation: 0
    m_KeepOriginalPositionY: 1
    m_KeepOriginalPositionXZ: 0
    m_HeightFromFeet: 0
    m_Mirror: 0
  m_EditorCurves: []
  m_EulerEditorCurves: []
  m_HasGenericRootTransform: 0
  m_HasMotionFloatCurves: 0
  m_GenerateMotionCurves: 0
  m_Events: []
