%YAML 1.1
%TAG !u! tag:unity3d.com,2011:
--- !u!74 &7400000
AnimationClip:
  m_ObjectHideFlags: 0
  m_PrefabParentObject: {fileID: 0}
  m_PrefabInternal: {fileID: 0}
  m_Name: HeroHurt
  serializedVersion: 6
  m_Legacy: 0
  m_Compressed: 0
  m_UseHighQualityCurve: 1
  m_RotationCurves: []
  m_CompressedRotationCurves: []
  m_EulerCurves: []
  m_PositionCurves: []
  m_ScaleCurves: []
  m_FloatCurves: []
  m_PPtrCurves:
  - curve:
    - time: 0
      value: {fileID: 21300000, guid: 97e9244ecf6b027488d3c0dace9628cb, type: 3}
    - time: 0.083333336
      value: {fileID: 21300000, guid: ae4fada02be4c254ab7cd66becd1b50d, type: 3}
    - time: 0.16666667
      value: {fileID: 21300000, guid: 324fdf390b3fb8542a62c7d8ac027946, type: 3}
    - time: 0.25
      value: {fileID: 21300000, guid: a4d1e94498885d44b9630d1bb851e38e, type: 3}
    - time: 0.33333334
      value: {fileID: 21300000, guid: a0fd40c72e2807341b85656e92b1f02d, type: 3}
    - time: 0.41666666
      value: {fileID: 21300000, guid: 7f4dcd1268c78384fa095d130d52f872, type: 3}
    - time: 0.5
      value: {fileID: 21300000, guid: fbb0a67f5eb1b4a468d39fd4a55ed0cf, type: 3}
    - time: 0.5833333
      value: {fileID: 21300000, guid: ab3adedccfd430449bc4a1715ff8528a, type: 3}
    - time: 0.6666667
      value: {fileID: 21300000, guid: 402e14f9ae756bf4b8554b2fa3fe18fd, type: 3}
    - time: 0.75
      value: {fileID: 21300000, guid: 94c443fc91fb59d4693a8466d3a47164, type: 3}
    attribute: m_Sprite
    path: 
    classID: 212
    script: {fileID: 0}
  m_SampleRate: 12
  m_WrapMode: 0
  m_Bounds:
    m_Center: {x: 0, y: 0, z: 0}
    m_Extent: {x: 0, y: 0, z: 0}
  m_ClipBindingConstant:
    genericBindings:
    - serializedVersion: 2
      path: 0
      attribute: 0
      script: {fileID: 0}
      typeID: 212
      customType: 23
      isPPtrCurve: 1
    pptrCurveMapping:
    - {fileID: 21300000, guid: 97e9244ecf6b027488d3c0dace9628cb, type: 3}
    - {fileID: 21300000, guid: ae4fada02be4c254ab7cd66becd1b50d, type: 3}
    - {fileID: 21300000, guid: 324fdf390b3fb8542a62c7d8ac027946, type: 3}
    - {fileID: 21300000, guid: a4d1e94498885d44b9630d1bb851e38e, type: 3}
    - {fileID: 21300000, guid: a0fd40c72e2807341b85656e92b1f02d, type: 3}
    - {fileID: 21300000, guid: 7f4dcd1268c78384fa095d130d52f872, type: 3}
    - {fileID: 21300000, guid: fbb0a67f5eb1b4a468d39fd4a55ed0cf, type: 3}
    - {fileID: 21300000, guid: ab3adedccfd430449bc4a1715ff8528a, type: 3}
    - {fileID: 21300000, guid: 402e14f9ae756bf4b8554b2fa3fe18fd, type: 3}
    - {fileID: 21300000, guid: 94c443fc91fb59d4693a8466d3a47164, type: 3}
  m_AnimationClipSettings:
    serializedVersion: 2
    m_AdditiveReferencePoseClip: {fileID: 0}
    m_AdditiveReferencePoseTime: 0
    m_StartTime: 0
    m_StopTime: 0.8333333
    m_OrientationOffsetY: 0
    m_Level: 0
    m_CycleOffset: 0
    m_HasAdditiveReferencePose: 0
    m_LoopTime: 1
    m_LoopBlend: 0
    m_LoopBlendOrientation: 0
    m_LoopBlendPositionY: 0
    m_LoopBlendPositionXZ: 0
    m_KeepOriginalOrientation: 0
    m_KeepOriginalPositionY: 1
    m_KeepOriginalPositionXZ: 0
    m_HeightFromFeet: 0
    m_Mirror: 0
  m_EditorCurves: []
  m_EulerEditorCurves: []
  m_HasGenericRootTransform: 0
  m_HasMotionFloatCurves: 0
  m_GenerateMotionCurves: 0
  m_Events: []
