%YAML 1.1
%TAG !u! tag:unity3d.com,2011:
--- !u!74 &7400000
AnimationClip:
  m_ObjectHideFlags: 0
  m_PrefabParentObject: {fileID: 0}
  m_PrefabInternal: {fileID: 0}
  m_Name: PachyRun
  serializedVersion: 6
  m_Legacy: 0
  m_Compressed: 0
  m_UseHighQualityCurve: 1
  m_RotationCurves: []
  m_CompressedRotationCurves: []
  m_EulerCurves: []
  m_PositionCurves: []
  m_ScaleCurves: []
  m_FloatCurves: []
  m_PPtrCurves:
  - curve:
    - time: 0
      value: {fileID: 21300000, guid: a7adb8963bce2e843bd3814be7d37baa, type: 3}
    - time: 0.083333336
      value: {fileID: 21300000, guid: 7b9bf3e1dfa4a4244afafeeca9e0a8fe, type: 3}
    - time: 0.16666667
      value: {fileID: 21300000, guid: dad5630c60f32554dbe779578ba2c64d, type: 3}
    - time: 0.25
      value: {fileID: 21300000, guid: 4f16a69ac2a7c274c8c08699180e662f, type: 3}
    - time: 0.33333334
      value: {fileID: 21300000, guid: da72fe2a29fbd5848a720d1b64318399, type: 3}
    - time: 0.41666666
      value: {fileID: 21300000, guid: 269cd7bac0c3f5f47b2c7b4ad616171f, type: 3}
    - time: 0.5
      value: {fileID: 21300000, guid: 48346a48bb4af454d8889d9ffce6b2ef, type: 3}
    - time: 0.5833333
      value: {fileID: 21300000, guid: b9e438bceeb86f94ab31d660f37e0b47, type: 3}
    attribute: m_Sprite
    path: 
    classID: 212
    script: {fileID: 0}
  m_SampleRate: 12
  m_WrapMode: 0
  m_Bounds:
    m_Center: {x: 0, y: 0, z: 0}
    m_Extent: {x: 0, y: 0, z: 0}
  m_ClipBindingConstant:
    genericBindings:
    - serializedVersion: 2
      path: 0
      attribute: 0
      script: {fileID: 0}
      typeID: 212
      customType: 23
      isPPtrCurve: 1
    pptrCurveMapping:
    - {fileID: 21300000, guid: a7adb8963bce2e843bd3814be7d37baa, type: 3}
    - {fileID: 21300000, guid: 7b9bf3e1dfa4a4244afafeeca9e0a8fe, type: 3}
    - {fileID: 21300000, guid: dad5630c60f32554dbe779578ba2c64d, type: 3}
    - {fileID: 21300000, guid: 4f16a69ac2a7c274c8c08699180e662f, type: 3}
    - {fileID: 21300000, guid: da72fe2a29fbd5848a720d1b64318399, type: 3}
    - {fileID: 21300000, guid: 269cd7bac0c3f5f47b2c7b4ad616171f, type: 3}
    - {fileID: 21300000, guid: 48346a48bb4af454d8889d9ffce6b2ef, type: 3}
    - {fileID: 21300000, guid: b9e438bceeb86f94ab31d660f37e0b47, type: 3}
  m_AnimationClipSettings:
    serializedVersion: 2
    m_AdditiveReferencePoseClip: {fileID: 0}
    m_AdditiveReferencePoseTime: 0
    m_StartTime: 0
    m_StopTime: 0.6666666
    m_OrientationOffsetY: 0
    m_Level: 0
    m_CycleOffset: 0
    m_HasAdditiveReferencePose: 0
    m_LoopTime: 1
    m_LoopBlend: 0
    m_LoopBlendOrientation: 0
    m_LoopBlendPositionY: 0
    m_LoopBlendPositionXZ: 0
    m_KeepOriginalOrientation: 0
    m_KeepOriginalPositionY: 1
    m_KeepOriginalPositionXZ: 0
    m_HeightFromFeet: 0
    m_Mirror: 0
  m_EditorCurves: []
  m_EulerEditorCurves: []
  m_HasGenericRootTransform: 0
  m_HasMotionFloatCurves: 0
  m_GenerateMotionCurves: 0
  m_Events:
  - time: 0.25
    functionName: playFootStepAudio
    data: 
    objectReferenceParameter: {fileID: 0}
    floatParameter: 0
    intParameter: 0
    messageOptions: 0
  - time: 0.5833333
    functionName: playFootStepAudio
    data: 
    objectReferenceParameter: {fileID: 0}
    floatParameter: 0
    intParameter: 0
    messageOptions: 0
