%YAML 1.1
%TAG !u! tag:unity3d.com,2011:
--- !u!74 &7400000
AnimationClip:
  m_ObjectHideFlags: 0
  m_PrefabParentObject: {fileID: 0}
  m_PrefabInternal: {fileID: 0}
  m_Name: PachyIdle
  serializedVersion: 6
  m_Legacy: 0
  m_Compressed: 0
  m_UseHighQualityCurve: 1
  m_RotationCurves: []
  m_CompressedRotationCurves: []
  m_EulerCurves: []
  m_PositionCurves: []
  m_ScaleCurves: []
  m_FloatCurves: []
  m_PPtrCurves:
  - curve:
    - time: 0
      value: {fileID: 21300000, guid: d9f66589462b773428a56a41aacc45be, type: 3}
    - time: 0.1
      value: {fileID: 21300000, guid: 6a9faafc24a079243b589124aaba75bf, type: 3}
    - time: 0.2
      value: {fileID: 21300000, guid: 3d23d7dd82d56924fa4a6afd49a8b494, type: 3}
    - time: 0.3
      value: {fileID: 21300000, guid: c9ff2fc572835174d88ab98fed2018ae, type: 3}
    - time: 0.4
      value: {fileID: 21300000, guid: 25bb7f64054b6284da2da752e2b39c5b, type: 3}
    - time: 0.5
      value: {fileID: 21300000, guid: 3e58c08fbc7eb3745b054a5d7fde21fb, type: 3}
    - time: 0.6
      value: {fileID: 21300000, guid: 5e3fd58710b5c6e4483fdca3348fb889, type: 3}
    - time: 0.7
      value: {fileID: 21300000, guid: 32d3360dc13b27c46a916d1e58e26ec5, type: 3}
    - time: 0.8
      value: {fileID: 21300000, guid: 4c96793bddd7fd54a940378b93627d7c, type: 3}
    - time: 0.9
      value: {fileID: 21300000, guid: 7f10b71a6d1888341a4e865de427d7ab, type: 3}
    attribute: m_Sprite
    path: 
    classID: 212
    script: {fileID: 0}
  m_SampleRate: 10
  m_WrapMode: 0
  m_Bounds:
    m_Center: {x: 0, y: 0, z: 0}
    m_Extent: {x: 0, y: 0, z: 0}
  m_ClipBindingConstant:
    genericBindings:
    - serializedVersion: 2
      path: 0
      attribute: 0
      script: {fileID: 0}
      typeID: 212
      customType: 23
      isPPtrCurve: 1
    pptrCurveMapping:
    - {fileID: 21300000, guid: d9f66589462b773428a56a41aacc45be, type: 3}
    - {fileID: 21300000, guid: 6a9faafc24a079243b589124aaba75bf, type: 3}
    - {fileID: 21300000, guid: 3d23d7dd82d56924fa4a6afd49a8b494, type: 3}
    - {fileID: 21300000, guid: c9ff2fc572835174d88ab98fed2018ae, type: 3}
    - {fileID: 21300000, guid: 25bb7f64054b6284da2da752e2b39c5b, type: 3}
    - {fileID: 21300000, guid: 3e58c08fbc7eb3745b054a5d7fde21fb, type: 3}
    - {fileID: 21300000, guid: 5e3fd58710b5c6e4483fdca3348fb889, type: 3}
    - {fileID: 21300000, guid: 32d3360dc13b27c46a916d1e58e26ec5, type: 3}
    - {fileID: 21300000, guid: 4c96793bddd7fd54a940378b93627d7c, type: 3}
    - {fileID: 21300000, guid: 7f10b71a6d1888341a4e865de427d7ab, type: 3}
  m_AnimationClipSettings:
    serializedVersion: 2
    m_AdditiveReferencePoseClip: {fileID: 0}
    m_AdditiveReferencePoseTime: 0
    m_StartTime: 0
    m_StopTime: 1
    m_OrientationOffsetY: 0
    m_Level: 0
    m_CycleOffset: 0
    m_HasAdditiveReferencePose: 0
    m_LoopTime: 1
    m_LoopBlend: 0
    m_LoopBlendOrientation: 0
    m_LoopBlendPositionY: 0
    m_LoopBlendPositionXZ: 0
    m_KeepOriginalOrientation: 0
    m_KeepOriginalPositionY: 1
    m_KeepOriginalPositionXZ: 0
    m_HeightFromFeet: 0
    m_Mirror: 0
  m_EditorCurves: []
  m_EulerEditorCurves: []
  m_HasGenericRootTransform: 0
  m_HasMotionFloatCurves: 0
  m_GenerateMotionCurves: 0
  m_Events: []
