%YAML 1.1
%TAG !u! tag:unity3d.com,2011:
--- !u!74 &7400000
AnimationClip:
  m_ObjectHideFlags: 0
  m_PrefabParentObject: {fileID: 0}
  m_PrefabInternal: {fileID: 0}
  m_Name: PachyWalk
  serializedVersion: 6
  m_Legacy: 0
  m_Compressed: 0
  m_UseHighQualityCurve: 1
  m_RotationCurves: []
  m_CompressedRotationCurves: []
  m_EulerCurves: []
  m_PositionCurves: []
  m_ScaleCurves: []
  m_FloatCurves: []
  m_PPtrCurves:
  - curve:
    - time: 0
      value: {fileID: 21300000, guid: 33d6b9c9b260238429140f3026a74d73, type: 3}
    - time: 0.083333336
      value: {fileID: 21300000, guid: cc6fe0ce845ee954fb8511ed3f2e35f8, type: 3}
    - time: 0.16666667
      value: {fileID: 21300000, guid: a80e2884141dff94c957fbe06bf9c72f, type: 3}
    - time: 0.25
      value: {fileID: 21300000, guid: a8b86468260fb5045a3f41118e40b55e, type: 3}
    - time: 0.33333334
      value: {fileID: 21300000, guid: 9155c61652bbd3a40940f049384a9847, type: 3}
    - time: 0.41666666
      value: {fileID: 21300000, guid: 26f5738f47c7de247b4a06c43d7a3d6c, type: 3}
    - time: 0.5
      value: {fileID: 21300000, guid: 3ed7bd10a24d9d74a9fff590004c1eba, type: 3}
    - time: 0.5833333
      value: {fileID: 21300000, guid: 5b22f4b7a055ce44b895b00a0c0fe919, type: 3}
    - time: 0.6666667
      value: {fileID: 21300000, guid: d1022768333fe1e43aefdcec7bb8b659, type: 3}
    - time: 0.75
      value: {fileID: 21300000, guid: b958a614f971bdd40b21e7832f49c8f2, type: 3}
    attribute: m_Sprite
    path: 
    classID: 212
    script: {fileID: 0}
  m_SampleRate: 12
  m_WrapMode: 0
  m_Bounds:
    m_Center: {x: 0, y: 0, z: 0}
    m_Extent: {x: 0, y: 0, z: 0}
  m_ClipBindingConstant:
    genericBindings:
    - serializedVersion: 2
      path: 0
      attribute: 0
      script: {fileID: 0}
      typeID: 212
      customType: 23
      isPPtrCurve: 1
    pptrCurveMapping:
    - {fileID: 21300000, guid: 33d6b9c9b260238429140f3026a74d73, type: 3}
    - {fileID: 21300000, guid: cc6fe0ce845ee954fb8511ed3f2e35f8, type: 3}
    - {fileID: 21300000, guid: a80e2884141dff94c957fbe06bf9c72f, type: 3}
    - {fileID: 21300000, guid: a8b86468260fb5045a3f41118e40b55e, type: 3}
    - {fileID: 21300000, guid: 9155c61652bbd3a40940f049384a9847, type: 3}
    - {fileID: 21300000, guid: 26f5738f47c7de247b4a06c43d7a3d6c, type: 3}
    - {fileID: 21300000, guid: 3ed7bd10a24d9d74a9fff590004c1eba, type: 3}
    - {fileID: 21300000, guid: 5b22f4b7a055ce44b895b00a0c0fe919, type: 3}
    - {fileID: 21300000, guid: d1022768333fe1e43aefdcec7bb8b659, type: 3}
    - {fileID: 21300000, guid: b958a614f971bdd40b21e7832f49c8f2, type: 3}
  m_AnimationClipSettings:
    serializedVersion: 2
    m_AdditiveReferencePoseClip: {fileID: 0}
    m_AdditiveReferencePoseTime: 0
    m_StartTime: 0
    m_StopTime: 0.8333333
    m_OrientationOffsetY: 0
    m_Level: 0
    m_CycleOffset: 0
    m_HasAdditiveReferencePose: 0
    m_LoopTime: 1
    m_LoopBlend: 0
    m_LoopBlendOrientation: 0
    m_LoopBlendPositionY: 0
    m_LoopBlendPositionXZ: 0
    m_KeepOriginalOrientation: 0
    m_KeepOriginalPositionY: 1
    m_KeepOriginalPositionXZ: 0
    m_HeightFromFeet: 0
    m_Mirror: 0
  m_EditorCurves: []
  m_EulerEditorCurves: []
  m_HasGenericRootTransform: 0
  m_HasMotionFloatCurves: 0
  m_GenerateMotionCurves: 0
  m_Events:
  - time: 0.33333334
    functionName: playFootStepAudio
    data: 
    objectReferenceParameter: {fileID: 0}
    floatParameter: 0
    intParameter: 0
    messageOptions: 0
  - time: 0.75
    functionName: playFootStepAudio
    data: 
    objectReferenceParameter: {fileID: 0}
    floatParameter: 0
    intParameter: 0
    messageOptions: 0
