%YAML 1.1
%TAG !u! tag:unity3d.com,2011:
--- !u!74 &7400000
AnimationClip:
  m_ObjectHideFlags: 0
  m_PrefabParentObject: {fileID: 0}
  m_PrefabInternal: {fileID: 0}
  m_Name: Raptor2Attack
  serializedVersion: 6
  m_Legacy: 0
  m_Compressed: 0
  m_UseHighQualityCurve: 1
  m_RotationCurves: []
  m_CompressedRotationCurves: []
  m_EulerCurves: []
  m_PositionCurves: []
  m_ScaleCurves: []
  m_FloatCurves: []
  m_PPtrCurves:
  - curve:
    - time: 0
      value: {fileID: 21300000, guid: f7379852c264d1a46a12f967f2ba3ec7, type: 3}
    - time: 0.083333336
      value: {fileID: 21300000, guid: c2484772c254f2b428c9dcfffc51f6af, type: 3}
    - time: 0.16666667
      value: {fileID: 21300000, guid: dbdaa1db90032f64f93be9a7611f3cc4, type: 3}
    - time: 0.25
      value: {fileID: 21300000, guid: e0c5d5a0fb9aebb45b0a7c08ac19b64e, type: 3}
    - time: 0.33333334
      value: {fileID: 21300000, guid: acbdaa0e403358a4c9a7f441dc39d7fe, type: 3}
    - time: 0.41666666
      value: {fileID: 21300000, guid: f8bce1f2a995a3e42bf7b10cbcaef900, type: 3}
    - time: 0.5
      value: {fileID: 21300000, guid: ce01c9f32981ee34a80c4a57d1fc92b5, type: 3}
    - time: 0.5833333
      value: {fileID: 21300000, guid: 4527e6d60a0149a478496b8d6d3d3fd6, type: 3}
    - time: 0.6666667
      value: {fileID: 21300000, guid: d12114c4180b2a04a8a261e228e1c270, type: 3}
    - time: 0.75
      value: {fileID: 21300000, guid: 9f6c5417899cb3e4ca05537f9feccd12, type: 3}
    attribute: m_Sprite
    path: 
    classID: 212
    script: {fileID: 0}
  m_SampleRate: 12
  m_WrapMode: 0
  m_Bounds:
    m_Center: {x: 0, y: 0, z: 0}
    m_Extent: {x: 0, y: 0, z: 0}
  m_ClipBindingConstant:
    genericBindings:
    - serializedVersion: 2
      path: 0
      attribute: 0
      script: {fileID: 0}
      typeID: 212
      customType: 23
      isPPtrCurve: 1
    pptrCurveMapping:
    - {fileID: 21300000, guid: f7379852c264d1a46a12f967f2ba3ec7, type: 3}
    - {fileID: 21300000, guid: c2484772c254f2b428c9dcfffc51f6af, type: 3}
    - {fileID: 21300000, guid: dbdaa1db90032f64f93be9a7611f3cc4, type: 3}
    - {fileID: 21300000, guid: e0c5d5a0fb9aebb45b0a7c08ac19b64e, type: 3}
    - {fileID: 21300000, guid: acbdaa0e403358a4c9a7f441dc39d7fe, type: 3}
    - {fileID: 21300000, guid: f8bce1f2a995a3e42bf7b10cbcaef900, type: 3}
    - {fileID: 21300000, guid: ce01c9f32981ee34a80c4a57d1fc92b5, type: 3}
    - {fileID: 21300000, guid: 4527e6d60a0149a478496b8d6d3d3fd6, type: 3}
    - {fileID: 21300000, guid: d12114c4180b2a04a8a261e228e1c270, type: 3}
    - {fileID: 21300000, guid: 9f6c5417899cb3e4ca05537f9feccd12, type: 3}
  m_AnimationClipSettings:
    serializedVersion: 2
    m_AdditiveReferencePoseClip: {fileID: 0}
    m_AdditiveReferencePoseTime: 0
    m_StartTime: 0
    m_StopTime: 0.8333333
    m_OrientationOffsetY: 0
    m_Level: 0
    m_CycleOffset: 0
    m_HasAdditiveReferencePose: 0
    m_LoopTime: 1
    m_LoopBlend: 0
    m_LoopBlendOrientation: 0
    m_LoopBlendPositionY: 0
    m_LoopBlendPositionXZ: 0
    m_KeepOriginalOrientation: 0
    m_KeepOriginalPositionY: 1
    m_KeepOriginalPositionXZ: 0
    m_HeightFromFeet: 0
    m_Mirror: 0
  m_EditorCurves: []
  m_EulerEditorCurves: []
  m_HasGenericRootTransform: 0
  m_HasMotionFloatCurves: 0
  m_GenerateMotionCurves: 0
  m_Events:
  - time: 0.33333334
    functionName: Bite
    data: 
    objectReferenceParameter: {fileID: 0}
    floatParameter: 0
    intParameter: 0
    messageOptions: 0
  - time: 0.6666667
    functionName: BiteCompleted
    data: 
    objectReferenceParameter: {fileID: 0}
    floatParameter: 0
    intParameter: 0
    messageOptions: 0
